{
  "configs": [
    "coupa_manage_rebates.xml",
    "coupa_manage_contracts.xml",
    "coupa_tax_validation.xml",
    "coupa_sync_po.xml",
    "implementation/datasource/users.xml",
    "global/config.xml",
    "implementation/datasource/comments.xml",
    "implementation/datasource/invoices.xml",
    "shared/commons.xml",
    "implementation/datasource/pos.xml",
    "coupa_disputed_invoice.xml",
    "shared/notifications.xml",
    "implementation/datasource/rebates.xml",
    "coupa_sync_invoice.xml",
    "coupa_po_auto_closure.xml"
  ],
  "secureProperties": [],
  "redeploymentEnabled": true,
  "name": "coupa_api",
  "minMuleVersion": "4.1.2",
  "requiredProduct": "MULE_EE",
  "classLoaderModelLoaderDescriptor": {
    "id": "mule",
    "attributes": {}
  },
  "bundleDescriptorLoader": {
    "id": "mule",
    "attributes": {}
  }
}