{
  "configs": [
    "common/security.xml",
    "common/notifications.xml",
    "alh_api_main.xml",
    "implementation/users.xml",
    "implementation/venues.xml",
    "global/config.xml",
    "implementation/ratings.xml",
    "implementation/players.xml"
  ],
  "secureProperties": [],
  "redeploymentEnabled": true,
  "name": "alh_api",
  "minMuleVersion": "4.1.2",
  "requiredProduct": "MULE_EE",
  "classLoaderModelLoaderDescriptor": {
    "id": "mule",
    "attributes": {
      "exportedPackages": [],
      "exportedResources": [
        "api\\ALHMontysVenueData.raml"
      ]
    }
  },
  "bundleDescriptorLoader": {
    "id": "mule",
    "attributes": {}
  }
}